{
  "version_name": "4.0.5",
  "version_code": 36,
  "aurora_build": "https://gitlab.com/AuroraOSS/AuroraStore/uploads/5b68036f798f8a648cc422ab74068877/AuroraStore_4.0.5.apk",
  "fdroid_build": "",
  "changelog": "Changelog : v4.0.5\n • Add optional promotional apps\n • Bug fixes & improvements\n • Updated Translations"
}
